-44.15 -22.60 01 BARRA_MANSA
-44.45 -22.45 02 RESENDE
-43.70 -22.25 03 VALENÇA
-44.32 -23.02 04 ILHA_GRANDE
-44.30 -23.05 05 ANGRA_DOS_REIS
-44.75 -23.20 06 PARATY
-44.00 -22.90 07 MANGARATIBA
-43.25 -22.45 08 PETROPOLIS
-42.95 -22.45 09 TERESOPOLIS
-42.50 -22.30 10 NOVA_FRIBURGO 
-42.65 -22.45 11 CACHOEIRAS_DE_MACACU
-43.16 -22.90 12 RIODEJANEIRO
-43.40 -22.75 13 NOVA_IGUACU 
-42.95 -22.60 14 GUAPIMIRIM 
-43.10 -22.90 15 NITEROI 
-42.05 -22.90 16 CABO_FRIO
-41.00 -21.60 17 SAO_JOAO_DE_ITABOPOANA
-42.05 -22.00 18 SANTA_MARIA_MADALENA 
-41.33 -21.75 19 CAMPOS
